"specialite_fil","total_filles","pourcentage_filles"
"Techniques de commercialisation","10400","1.70709808099195530000"
"Gestion des entreprises et des administrations","8611","1.41344438225208914300"
"Génie biologique parcours biologie médicale et biotechnologie","5943","0.97550806685915291800"
"Information communication Parcours communication des organisations","3639","0.59732018430093512900"
"Information communication Parcours publicité","2833","0.46502008302405859300"
"Carrières juridiques","2380","0.39066283007315900100"
"Carrières sociales Parcours animation sociale et socioculturelle","2145","0.35208897920459078100"
"Gestion administrative et commerciale des organisations","2053","0.33698772694966194500"
"Métiers du multimédia et de l'internet","1837","0.30153261295982902800"
"Chimie","1751","0.28741622498239555100"
"Génie biologique parcours sciences de l'aliment et biotechnologie","1412","0.23177139330390777700"
"Génie biologique Parcours diététique et nutrition","1322","0.21699842914147739500"
"Information communication Parcours information numérique dans les organisations","1272","0.20879122682901607100"
"Information communication Parcours métiers du livre et du patrimoine","1185","0.19451069480533336800"
"Carrières sociales Parcours assistance sociale","1087","0.17842457827290917400"
"Carrières sociales Parcours éducation spécialisée","1071","0.17579827353292155100"
"Génie biologique parcours sciences de l'environnement et écotechnologies","1000","0.16414404624922647100"
"Génie civil - Construction durable","910","0.14937108208679608900"
"Mesures physiques","908","0.14904279399429763600"
"Hygiène Sécurité Environnement","737","0.12097416208567990900"
"Génie chimique génie des procédés","699","0.11473668832820930300"
"Gestion logistique et transport","653","0.10718606220074488600"
"Informatique","637","0.10455975746075726200"
"Carrières sociales parcours coordination et gestion des établissements et services sanitaires et sociaux","570","0.09356210636205908900"
"Carrières sociales parcours villes et territoires durables","540","0.08863778497458229400"
"Génie mécanique et productique","415","0.06811977919342898600"
"Génie électrique et informatique industrielle","266","0.04366231630229424100"
"Réseaux et télécommunications","255","0.04185673179355275000"
"Qualité, logistique industrielle et organisation","236","0.03873799491481744700"
"Génie thermique et énergie","234","0.03840970682231899400"
"Packaging, emballage et conditionnement","140","0.02298016647489170600"
"Statistique et informatique décisionnelle","118","0.01936899745740872400"
"Génie industriel et maintenance","99","0.01625026057867342100"
"Science et génie des matériaux","95","0.01559368439367651500"
